HW4_ST558_Jia Lu
…
'data.frame':   24 obs. of  2 variables:
 $ id  : chr  NA "focus" "focus" NA ...
 $ name: chr  "Forbes" "Focus" "Focus" "Forbes" ...

news_articles <- as_tibble(parsed_news$articles)

#create new two columns id and name from source and delete the source column
news_articles <- news_articles |>
  mutate(id = news_articles$source$id,
         name = news_articles$source$name) |>
  select(id, name, everything(), -source)
news_articles

# A tibble: 24 × 9
   id    name      author title description url   urlToImage publishedAt content
   <chr> <chr>     <chr>  <chr> <chr>       <chr> <chr>      <chr>       <chr>  
 1 <NA>  Forbes    "Simo… What… The Federa… http… https://i… 2024-06-22… "Feder…
 2 focus Focus     "FOCU… Infl… Die Schwei… http… https://p… 2024-06-20… "Die S…
 3 focus Focus     "FOCU… Infl… Die Schwei… http… https://p… 2024-06-20… "Die S…
 4 <NA>  Forbes    "Simo… What… June's CPI… http… https://i… 2024-06-23… "Jerom…
 5 <NA>  Yahoo En… "Edwa… Pair… (Bloomberg… http… https://m… 2024-06-20… "(Bloo…
 6 <NA>  Yahoo En… "Affa… Carn… We recentl… http… https://s… 2024-06-22… "We re…
 7 <NA>  Yahoo En… "Affa… What… We recentl… http… https://s… 2024-06-22… "We re…
 8 <NA>  Yahoo En… "Affa… What… We recentl… http… https://s… 2024-06-22… "We re…
 9 <NA>  Yahoo En… "Affa… Blue… We recentl… http… https://s… 2024-06-22… "We re…
10 <NA>  Yahoo En… "Affa… Did … We recentl… http… https://s… 2024-06-22… "We re…
# ℹ 14 more rows
…
#construct a new tibble with columns id and name and everything else excluding the source column
  news_articles <- news_articles |>
    mutate(id = news_articles$source$id,
           name = news_articles$source$name) |>
    select(id, name, everything(), -source)
  news_articles
}
#I then used this function twice with different query subjects and time period to search, but unique api key. 
#here, I supplied subject_query="federal%20reserve", time_period="2024-06-23", api_key="0eca322394b24a1786944625148c3767" 
query_API("federal%20reserve", "2024-05-24", "0eca322394b24a1786944625148c3767")

# A tibble: 100 × 9
   id        name  author title description url   urlToImage publishedAt content
   <chr>     <chr> <chr>  <chr> <chr>       <chr> <chr>      <chr>       <chr>  
 1 <NA>      NPR   Scott… "The… "The Feder… http… https://n… 2024-06-12… "The F…
 2 business… Busi… Matth… "Hig… "\"This is… http… https://i… 2024-06-04… "An FD…
 3 business… Busi… Filip… "Why… "Mortgage … http… https://i… 2024-05-26… "Getty…
 4 business… Busi… Ayele… "The… "The Feder… http… https://i… 2024-06-12… "U.S. …
 5 business… Busi… Ayele… "The… "The boomi… http… https://i… 2024-06-11… "Feder…
 6 <NA>      Yaho… Jason… "AI … "According… http… https://s… 2024-06-22… "More …
 7 <NA>      NPR   Daria… "Wha… "A vexing … http… https://m… 2024-06-14… "A vex…
 8 <NA>      Yaho… Micha… "NY … "The U.S. … http… https://m… 2024-06-10… "By Mi…
 9 business… Busi… Laure… "Ame… "Parents w… http… https://i… 2024-05-26… "The p…
10 <NA>      Yaho… Jenni… "Fed… "The Feder… http… https://s… 2024-06-12… "The F…
# ℹ 90 more rows

#here, I supplied subject_query="quantitative%20tightening", time_period= "2024-06-10", api_key="0eca322394b24a1786944625148c3767" 
query_API("quantitative%20tightening", "2024-06-10", "0eca322394b24a1786944625148c3767")

# A tibble: 66 × 9
   id      name    author title description url   urlToImage publishedAt content
   <chr>   <chr>   <chr>  <chr> <chr>       <chr> <chr>      <chr>       <chr>  
 1 <NA>    Yahoo … Leika… Expl… "The Bank … http… https://m… 2024-06-13… "By Le…
 2 <NA>    The Ja… Toru … BOJ … "A paring … http… https://w… 2024-06-11… "The B…
 3 <NA>    CNA     <NA>   Expl… "TOKYO : T… http… https://o… 2024-06-13… "TOKYO…
 4 <NA>    CNA     <NA>   Econ… "TOKYO : E… http… https://o… 2024-06-17… "TOKYO…
 5 fortune Fortune Will … The … "Bank of A… http… https://f… 2024-06-17… "Stock…
 6 <NA>    Yahoo … Toru … BOJ … "(Bloomber… http… https://s… 2024-06-10… "(Bloo…
 7 <NA>    Yahoo … Toru … BOJ … "(Bloomber… http… https://s… 2024-06-14… "(Bloo…
 8 <NA>    Yahoo … Jessi… Ever… "(Bloomber… http… https://m… 2024-06-16… "(Bloo…
 9 <NA>    Market… <NA>   What… "(marketsc… http… https://w… 2024-06-13… "TOKYO…
10 <NA>    Invest… Reute… Expl… "Explainer… http… https://i… 2024-06-13… "By Le…
# ℹ 56 more rows
